<?xml version="1.0" encoding="UTF-8" standalone="no"?>
<!-- Created with Inkscape (http://www.inkscape.org/) -->

<svg
   width="30"
   height="25"
   viewBox="0 0 7.9374998 6.6145831"
   version="1.1"
   id="svg106"
   xml:space="preserve"
   xmlns="http://www.w3.org/2000/svg"
   xmlns:svg="http://www.w3.org/2000/svg"><defs
     id="defs103" /><g
     id="layer1"
     transform="translate(-19.887735,22.092786)"><path
       style="fill:#000000;stroke:none;stroke-width:0.845562;stroke-linecap:butt;stroke-linejoin:round;stroke-dasharray:none;stroke-opacity:1"
       id="path248"
       d="M 15,30 8.8836955,19.40625 2.767391,8.8125003 15,8.8125 l 12.232609,-3e-7 -6.116305,10.5937503 z"
       transform="matrix(-0.32444019,0,0,-0.31219271,28.723088,-12.727005)" /></g></svg>
